{
    "style_prop.at_vuu_id1.txt": {
        "global_cache": false,
        "version_id": 1000010,
        "version_string": "1.0.0 Alpha",
        "hash": "9217211cd9fb31ca8f2769a48c1d0233"
    },
    "style_prop.at_vuu_id1_title.txt": {
        "global_cache": false,
        "version_id": 1000010,
        "version_string": "1.0.0 Alpha",
        "hash": "51f155f861e3a69ebca940552b01107e"
    },
    "style_prop.at_vuu_id2.txt": {
        "global_cache": false,
        "version_id": 1000010,
        "version_string": "1.0.0 Alpha",
        "hash": "a62e3b6b59379432d002ceb7ca8d82dc"
    },
    "style_prop.at_vuu_id2_title.txt": {
        "global_cache": false,
        "version_id": 1000010,
        "version_string": "1.0.0 Alpha",
        "hash": "d9d4df24a6a9b1b6fff04b7cac581ad6"
    },
    "style_prop.at_vuu_id3.txt": {
        "global_cache": false,
        "version_id": 1000010,
        "version_string": "1.0.0 Alpha",
        "hash": "f13d7e8685adac48d5bae2626f8d66cd"
    },
    "style_prop.at_vuu_id3_title.txt": {
        "global_cache": false,
        "version_id": 1000010,
        "version_string": "1.0.0 Alpha",
        "hash": "a7f355aaafaf5ebb20ca6a93a59e8e35"
    },
    "style_prop_desc.at_vuu_id1.txt": {
        "global_cache": false,
        "version_id": 1000010,
        "version_string": "1.0.0 Alpha",
        "hash": "d41d8cd98f00b204e9800998ecf8427e"
    },
    "style_prop_desc.at_vuu_id1_title.txt": {
        "global_cache": false,
        "version_id": 1000010,
        "version_string": "1.0.0 Alpha",
        "hash": "d41d8cd98f00b204e9800998ecf8427e"
    },
    "style_prop_desc.at_vuu_id2.txt": {
        "global_cache": false,
        "version_id": 1000010,
        "version_string": "1.0.0 Alpha",
        "hash": "d41d8cd98f00b204e9800998ecf8427e"
    },
    "style_prop_desc.at_vuu_id2_title.txt": {
        "global_cache": false,
        "version_id": 1000010,
        "version_string": "1.0.0 Alpha",
        "hash": "d41d8cd98f00b204e9800998ecf8427e"
    },
    "style_prop_desc.at_vuu_id3.txt": {
        "global_cache": false,
        "version_id": 1000010,
        "version_string": "1.0.0 Alpha",
        "hash": "d41d8cd98f00b204e9800998ecf8427e"
    },
    "style_prop_desc.at_vuu_id3_title.txt": {
        "global_cache": false,
        "version_id": 1000010,
        "version_string": "1.0.0 Alpha",
        "hash": "d41d8cd98f00b204e9800998ecf8427e"
    },
    "style_prop_group.at_vuu_propertie.txt": {
        "global_cache": false,
        "version_id": 1000010,
        "version_string": "1.0.0 Alpha",
        "hash": "02161c52f7d80aafd808a3b0b0747f8d"
    },
    "style_prop_group_desc.at_vuu_propertie.txt": {
        "global_cache": false,
        "version_id": 1000010,
        "version_string": "1.0.0 Alpha",
        "hash": "d41d8cd98f00b204e9800998ecf8427e"
    }
}