{
    "at_vuu_id1.json": {
        "hash": "4ff8f71e4a96b5cf0db40610783e2806"
    },
    "at_vuu_id1_title.json": {
        "hash": "8c3bfad163531282b76077b3be28b9e8"
    },
    "at_vuu_id2.json": {
        "hash": "2d4e0b376e706722c02cee1cfc0d0aeb"
    },
    "at_vuu_id2_title.json": {
        "hash": "dde568c86876009966fb7f3821020b7b"
    },
    "at_vuu_id3.json": {
        "hash": "63f0ad876a927190f0e01280e7e2435b"
    },
    "at_vuu_id3_title.json": {
        "hash": "19c2ca1a81fc77a01cce21aa939f07e2"
    }
}