{
    "group_name": "at_vuu_propertie",
    "title": "Block1 Title",
    "description": "",
    "property_type": "value",
    "css_components": [],
    "value_type": "color",
    "value_parameters": "",
    "depends_on": "",
    "value_group": "",
    "property_value": "darkblue",
    "display_order": 1
}